…
Data modelling
--------------

Summarize the votes for each combination of country, year, and topic

``` r
(country_year_topic <- votes_tidy2 %>% 
  group_by(country, year, topic) %>% 
  summarize( total = n() , percent_yes = mean(vote == 1)) %>% 
  ungroup()  )
```

    ## # A tibble: 26,968 x 5
    ##        country  year                        topic total percent_yes
    ##          <chr> <dbl>                        <chr> <int>       <dbl>
    ##  1 Afghanistan  1947                  Colonialism     8   0.5000000
    ##  2 Afghanistan  1947         Economic development     1   0.0000000
    ##  3 Afghanistan  1947                 Human rights     1   0.0000000
    ##  4 Afghanistan  1947         Palestinian conflict     6   0.0000000
    ##  5 Afghanistan  1949 Arms control and disarmament     3   0.0000000
    ##  6 Afghanistan  1949                  Colonialism    22   0.8636364
    ##  7 Afghanistan  1949         Economic development     1   1.0000000
    ##  8 Afghanistan  1949                 Human rights     3   0.0000000
    ##  9 Afghanistan  1949              Nuclear weapons     3   0.0000000
    ## 10 Afghanistan  1949         Palestinian conflict    11   0.8181818
    ## # ... with 26,958 more rows
…
Countries has the steepest downward trend in Colonialism (goes agnasit UN resolution):

``` r
(country_coef_model <- country_year_topic %>% 
  nest(-country, -topic) %>% 
  mutate( model = map(data, ~lm(percent_yes ~ year , .))) %>% 
  mutate(tidied = map(model, tidy)) %>% 
  unnest(tidied) %>% 
  filter ( term == "year" , p.adjust(p.value) < 0.05 ,
           topic == "Colonialism") %>%
  arrange (estimate))
```

    ## # A tibble: 26 x 7
    ##                       country       topic  term     estimate    std.error
    ##                         <chr>       <chr> <chr>        <dbl>        <dbl>
    ##  1                     Israel Colonialism  year -0.009529337 0.0017706645
    ##  2   United States of America Colonialism  year -0.007473819 0.0009222886
    ##  3                   Pakistan Colonialism  year  0.004277785 0.0008367695
    ##  4                      Egypt Colonialism  year  0.004941763 0.0009449754
    ##  5                Afghanistan Colonialism  year  0.005106200 0.0009885245
    ##  6                   Malaysia Colonialism  year  0.005597429 0.0010631137
    ##  7                   Thailand Colonialism  year  0.005754159 0.0011343229
    ##  8                      India Colonialism  year  0.005858268 0.0010665963
    ##  9 Iran (Islamic Republic of) Colonialism  year  0.006048075 0.0009691037
    ## 10                       Cuba Colonialism  year  0.006337732 0.0011236394
    ## # ... with 16 more rows, and 2 more variables: statistic <dbl>,
    ## #   p.value <dbl>

Countries has the steepest upward trend in Colonialism:

``` r
(country_coef_model <- country_year_topic %>% 
  nest(-country, -topic) %>% 
  mutate( model = map(data, ~lm(percent_yes ~ year , .))) %>% 
  mutate(tidied = map(model, tidy)) %>% 
  unnest(tidied) %>% 
  filter( term == "year" , p.adjust(p.value) < 0.05 ,
           topic == "Colonialism") %>%
  arrange(desc(estimate) )  )
```

    ## # A tibble: 26 x 7
    ##                             country       topic  term    estimate
    ##                               <chr>       <chr> <chr>       <dbl>
    ##  1                     South Africa Colonialism  year 0.016574451
    ##  2                      New Zealand Colonialism  year 0.010865002
    ##  3 Saint Vincent and the Grenadines Colonialism  year 0.010811672
    ##  4                            Spain Colonialism  year 0.009479393
    ##  5                        Nicaragua Colonialism  year 0.009464870
    ##  6                            Chile Colonialism  year 0.009323302
    ##  7 Bolivia (Plurinational State of) Colonialism  year 0.008524197
    ##  8               Dominican Republic Colonialism  year 0.008422279
    ##  9                          Austria Colonialism  year 0.008353305
    ## 10                           Brazil Colonialism  year 0.008271821
    ## # ... with 16 more rows, and 3 more variables: std.error <dbl>,
    ## #   statistic <dbl>, p.value <dbl>
…
